edge_x,edge_y,number,center_x,center_y
484.0,737.0,0.0,491.0,624.0
542.2518137154925,705.047597471245,0.0,491.0,624.0
579.8993125317444,675.047597471245,0.0,491.0,624.0
580.8993125317445,594.952402528755,0.0,491.0,624.0
567.2518137154925,535.952402528755,0.0,491.0,624.0
511.5,513.5,0.0,491.0,624.0
449.74818628450754,565.4524025287549,0.0,491.0,624.0
397.60068746825556,586.4524025287549,0.0,491.0,624.0
386.10068746825556,667.047597471245,0.0,491.0,624.0
432.7481862845075,696.047597471245,0.0,491.0,624.0
441.5,906.5,1.0,447.0,822.0
490.75181371549246,911.0,1.0,447.0,822.0
514.8993125317444,872.047597471245,1.0,447.0,822.0
547.3993125317445,782.452402528755,1.0,447.0,822.0
491.2518137154925,759.452402528755,1.0,447.0,822.0
449.0,751.0,1.0,447.0,822.0
405.74818628450754,736.4524025287549,1.0,447.0,822.0
379.60068746825556,777.9524025287549,1.0,447.0,822.0
340.60068746825556,869.547597471245,1.0,447.0,822.0
382.2481862845075,883.047597471245,1.0,447.0,822.0
668.0,442.5,2.0,664.0,347.0
717.2518137154925,426.04759747124507,2.0,664.0,347.0
738.8993125317444,376.54759747124507,2.0,664.0,347.0
735.8993125317445,339.95240252875493,2.0,664.0,347.0
741.2518137154925,277.95240252875493,2.0,664.0,347.0
646.5,234.0,2.0,664.0,347.0
604.7481862845075,258.45240252875493,2.0,664.0,347.0
562.6006874682556,326.45240252875493,2.0,664.0,347.0
555.6006874682555,366.547597471245,2.0,664.0,347.0
627.7481862845075,439.54759747124507,2.0,664.0,347.0
905.0,200.5,3.0,913.0,130.0
951.7518137154925,224.54759747124507,3.0,913.0,130.0
977.0,157.54759747124507,3.0,913.0,130.0
977.0,109.45240252875494,3.0,913.0,130.0
977.0,64.45240252875494,3.0,913.0,130.0
912.0,31.0,3.0,913.0,130.0
841.7481862845075,35.45240252875493,3.0,913.0,130.0
807.1006874682556,121.95240252875493,3.0,913.0,130.0
842.6006874682555,148.04759747124504,3.0,913.0,130.0
865.2481862845075,205.04759747124507,3.0,913.0,130.0
638.5,280.0,4.0,648.0,195.0
713.2518137154925,288.54759747124507,4.0,648.0,195.0
721.8993125317444,207.54759747124507,4.0,648.0,195.0
750.3993125317445,154.95240252875493,4.0,648.0,195.0
712.2518137154925,106.95240252875494,4.0,648.0,195.0
639.0,86.5,4.0,648.0,195.0
584.7481862845075,137.45240252875493,4.0,648.0,195.0
543.1006874682556,150.95240252875493,4.0,648.0,195.0
576.6006874682555,233.54759747124504,4.0,648.0,195.0
575.7481862845075,274.54759747124507,4.0,648.0,195.0
563.5,772.0,5.0,572.0,696.0
616.7518137154925,793.547597471245,5.0,572.0,696.0
660.8993125317444,726.047597471245,5.0,572.0,696.0
644.3993125317445,655.452402528755,5.0,572.0,696.0
625.7518137154925,617.452402528755,5.0,572.0,696.0
592.0,607.0,5.0,572.0,696.0
535.7481862845075,643.4524025287549,5.0,572.0,696.0
485.10068746825556,664.9524025287549,5.0,572.0,696.0
490.60068746825556,708.047597471245,5.0,572.0,696.0
522.2481862845075,785.547597471245,5.0,572.0,696.0
