edge_x,edge_y,number,center_x,center_y
246.0,325.0,0.0,237.0,225.0
274.75181371549246,294.04759747124507,0.0,237.0,225.0
341.39931253174444,240.04759747124507,0.0,237.0,225.0
327.39931253174444,194.45240252875496,0.0,237.0,225.0
308.7518137154925,147.45240252875493,0.0,237.0,225.0
245.0,114.0,0.0,237.0,225.0
176.74818628450754,155.45240252875493,0.0,237.0,225.0
143.10068746825556,179.45240252875493,0.0,237.0,225.0
134.10068746825556,256.047597471245,0.0,237.0,225.0
175.2481862845075,323.54759747124507,0.0,237.0,225.0
414.0,151.5,1.0,401.0,36.0
440.25181371549246,123.04759747124506,1.0,401.0,36.0
508.89931253174444,52.54759747124506,1.0,401.0,36.0
469.39931253174444,0.0,1.0,401.0,36.0
461.2518137154925,0.0,1.0,401.0,36.0
397.5,0.0,1.0,401.0,36.0
367.74818628450754,0.0,1.0,401.0,36.0
307.10068746825556,0.0,1.0,401.0,36.0
291.60068746825556,53.54759747124504,1.0,401.0,36.0
328.7481862845075,109.04759747124506,1.0,401.0,36.0
315.5,778.5,2.0,328.0,679.0
383.25181371549246,748.047597471245,2.0,328.0,679.0
402.89931253174444,693.047597471245,2.0,328.0,679.0
398.39931253174444,626.452402528755,2.0,328.0,679.0
370.7518137154925,612.452402528755,2.0,328.0,679.0
306.5,583.0,2.0,328.0,679.0
273.24818628450754,602.4524025287549,2.0,328.0,679.0
235.10068746825556,671.4524025287549,2.0,328.0,679.0
235.60068746825556,724.047597471245,2.0,328.0,679.0
295.2481862845075,735.047597471245,2.0,328.0,679.0
125.5,241.0,3.0,106.0,142.0
177.25181371549246,198.54759747124507,3.0,106.0,142.0
192.89931253174444,171.54759747124507,3.0,106.0,142.0
187.89931253174444,90.45240252875494,3.0,106.0,142.0
153.7518137154925,80.95240252875494,3.0,106.0,142.0
127.50000000000001,28.0,3.0,106.0,142.0
63.74818628450753,45.95240252875493,3.0,106.0,142.0
9.100687468255572,106.45240252875493,3.0,106.0,142.0
33.10068746825556,168.04759747124504,3.0,106.0,142.0
31.24818628450751,197.54759747124507,3.0,106.0,142.0
248.5,278.0,4.0,240.0,162.0
299.25181371549246,257.54759747124507,4.0,240.0,162.0
325.39931253174444,168.04759747124507,4.0,240.0,162.0
334.89931253174444,131.95240252875496,4.0,240.0,162.0
307.7518137154925,66.45240252875494,4.0,240.0,162.0
256.0,78.5,4.0,240.0,162.0
199.24818628450754,73.95240252875493,4.0,240.0,162.0
159.60068746825556,116.45240252875493,4.0,240.0,162.0
141.60068746825556,194.54759747124504,4.0,240.0,162.0
179.7481862845075,216.04759747124507,4.0,240.0,162.0
670.5,859.0,5.0,683.0,747.0
747.7518137154925,804.547597471245,5.0,683.0,747.0
763.8993125317444,787.547597471245,5.0,683.0,747.0
755.8993125317445,706.452402528755,5.0,683.0,747.0
718.7518137154925,664.952402528755,5.0,683.0,747.0
683.5,662.0,5.0,683.0,747.0
648.2481862845075,664.9524025287549,5.0,683.0,747.0
593.1006874682556,711.9524025287549,5.0,683.0,747.0
595.6006874682555,754.047597471245,5.0,683.0,747.0
617.7481862845075,836.547597471245,5.0,683.0,747.0
