edge_x,edge_y,number,center_x,center_y
829.0,911.0,0.0,825.0,868.0
867.2518137154925,911.0,0.0,825.0,868.0
929.8993125317444,890.047597471245,0.0,825.0,868.0
925.8993125317445,827.952402528755,0.0,825.0,868.0
876.2518137154925,806.452402528755,0.0,825.0,868.0
808.5,751.5,0.0,825.0,868.0
750.2481862845075,768.4524025287549,0.0,825.0,868.0
755.6006874682556,835.9524025287549,0.0,825.0,868.0
735.1006874682555,873.547597471245,0.0,825.0,868.0
761.2481862845075,911.0,0.0,825.0,868.0
555.0,624.0,1.0,533.0,513.0
597.2518137154925,600.547597471245,1.0,533.0,513.0
624.3993125317444,534.047597471245,1.0,533.0,513.0
621.8993125317445,478.95240252875493,1.0,533.0,513.0
568.7518137154925,455.45240252875493,1.0,533.0,513.0
519.5,402.0,1.0,533.0,513.0
462.24818628450754,455.95240252875493,1.0,533.0,513.0
433.60068746825556,478.45240252875493,1.0,533.0,513.0
444.10068746825556,530.047597471245,1.0,533.0,513.0
487.7481862845075,597.547597471245,1.0,533.0,513.0
392.5,763.5,2.0,385.0,676.0
457.25181371549246,753.047597471245,2.0,385.0,676.0
473.39931253174444,726.547597471245,2.0,385.0,676.0
486.39931253174444,628.452402528755,2.0,385.0,676.0
440.7518137154925,613.952402528755,2.0,385.0,676.0
377.0,562.5,2.0,385.0,676.0
337.74818628450754,579.9524025287549,2.0,385.0,676.0
315.60068746825556,642.4524025287549,2.0,385.0,676.0
299.60068746825556,701.547597471245,2.0,385.0,676.0
347.7481862845075,760.047597471245,2.0,385.0,676.0
545.5,744.0,3.0,553.0,665.0
628.2518137154925,747.547597471245,3.0,553.0,665.0
636.3993125317444,704.047597471245,3.0,553.0,665.0
627.8993125317445,649.952402528755,3.0,553.0,665.0
595.7518137154925,605.952402528755,3.0,553.0,665.0
541.5,551.5,3.0,553.0,665.0
516.2481862845075,610.4524025287549,3.0,553.0,665.0
443.10068746825556,633.4524025287549,3.0,553.0,665.0
450.60068746825556,683.547597471245,3.0,553.0,665.0
506.2481862845075,731.547597471245,3.0,553.0,665.0
512.0,890.0,4.0,526.0,782.0
584.2518137154925,843.047597471245,4.0,526.0,782.0
630.8993125317444,802.547597471245,4.0,526.0,782.0
595.3993125317445,736.452402528755,4.0,526.0,782.0
571.7518137154925,692.452402528755,4.0,526.0,782.0
547.0,673.5,4.0,526.0,782.0
475.74818628450754,714.9524025287549,4.0,526.0,782.0
437.10068746825556,775.4524025287549,4.0,526.0,782.0
447.60068746825556,788.547597471245,4.0,526.0,782.0
475.7481862845075,861.047597471245,4.0,526.0,782.0
620.5,486.0,5.0,612.0,384.0
650.7518137154925,446.54759747124507,5.0,612.0,384.0
681.8993125317444,431.04759747124507,5.0,612.0,384.0
682.3993125317445,358.45240252875493,5.0,612.0,384.0
666.7518137154925,304.95240252875493,5.0,612.0,384.0
596.5,305.0,5.0,612.0,384.0
555.2481862845075,324.45240252875493,5.0,612.0,384.0
508.60068746825556,366.45240252875493,5.0,612.0,384.0
519.1006874682555,429.047597471245,5.0,612.0,384.0
561.7481862845075,479.54759747124507,5.0,612.0,384.0
