edge_x,edge_y,number,center_x,center_y
714.0,873.0,0.0,705.0,781.0
758.7518137154925,851.047597471245,0.0,705.0,781.0
772.8993125317444,831.547597471245,0.0,705.0,781.0
810.3993125317445,772.452402528755,0.0,705.0,781.0
744.7518137154925,726.452402528755,0.0,705.0,781.0
722.5,683.5,0.0,705.0,781.0
627.2481862845075,719.9524025287549,0.0,705.0,781.0
637.6006874682556,758.9524025287549,0.0,705.0,781.0
595.6006874682555,798.547597471245,0.0,705.0,781.0
654.7481862845075,878.547597471245,0.0,705.0,781.0
877.5,216.5,1.0,871.0,141.0
921.7518137154925,201.54759747124507,1.0,871.0,141.0
946.3993125317444,169.54759747124507,1.0,871.0,141.0
959.8993125317445,111.45240252875494,1.0,871.0,141.0
905.7518137154925,44.452402528754945,1.0,871.0,141.0
867.0,35.0,1.0,871.0,141.0
798.7481862845075,77.95240252875493,1.0,871.0,141.0
772.1006874682556,90.95240252875493,1.0,871.0,141.0
761.1006874682555,155.54759747124504,1.0,871.0,141.0
801.7481862845075,196.54759747124507,1.0,871.0,141.0
240.0,118.5,2.0,224.0,4.0
281.75181371549246,77.54759747124506,2.0,224.0,4.0
305.89931253174444,53.04759747124506,2.0,224.0,4.0
319.89931253174444,0.0,2.0,224.0,4.0
290.2518137154925,0.0,2.0,224.0,4.0
221.5,0.0,2.0,224.0,4.0
168.24818628450754,0.0,2.0,224.0,4.0
138.10068746825556,0.0,2.0,224.0,4.0
127.10068746825556,36.04759747124504,2.0,224.0,4.0
156.2481862845075,88.04759747124506,2.0,224.0,4.0
640.5,634.0,3.0,659.0,545.0
718.7518137154925,640.047597471245,3.0,659.0,545.0
766.3993125317444,578.547597471245,3.0,659.0,545.0
758.3993125317445,535.452402528755,3.0,659.0,545.0
698.2518137154925,446.95240252875493,3.0,659.0,545.0
637.5,461.5,3.0,659.0,545.0
617.2481862845075,465.45240252875493,3.0,659.0,545.0
586.6006874682556,524.9524025287549,3.0,659.0,545.0
579.6006874682555,573.547597471245,3.0,659.0,545.0
621.2481862845075,613.047597471245,3.0,659.0,545.0
218.0,314.0,4.0,240.0,228.0
273.75181371549246,321.54759747124507,4.0,240.0,228.0
315.89931253174444,253.04759747124507,4.0,240.0,228.0
337.89931253174444,202.45240252875496,4.0,240.0,228.0
313.2518137154925,149.95240252875493,4.0,240.0,228.0
248.0,126.0,4.0,240.0,228.0
177.24818628450754,144.45240252875493,4.0,240.0,228.0
147.10068746825556,185.95240252875493,4.0,240.0,228.0
158.60068746825556,279.547597471245,4.0,240.0,228.0
196.7481862845075,282.04759747124507,4.0,240.0,228.0
