edge_x,edge_y,number,center_x,center_y
619.0,160.5,0.0,637.0,76.0
677.2518137154925,156.04759747124507,0.0,637.0,76.0
729.8993125317444,123.04759747124507,0.0,637.0,76.0
747.8993125317445,36.452402528754945,0.0,637.0,76.0
691.2518137154925,2.452402528754945,0.0,637.0,76.0
645.5,5.5,0.0,637.0,76.0
591.2481862845075,0.0,0.0,637.0,76.0
529.6006874682556,31.45240252875493,0.0,637.0,76.0
537.1006874682555,113.54759747124504,0.0,637.0,76.0
575.7481862845075,165.04759747124507,0.0,637.0,76.0
678.5,694.0,1.0,663.0,603.0
706.2518137154925,661.547597471245,1.0,663.0,603.0
762.8993125317444,623.547597471245,1.0,663.0,603.0
756.8993125317445,577.952402528755,1.0,663.0,603.0
736.7518137154925,511.95240252875493,1.0,663.0,603.0
641.5,532.0,1.0,663.0,603.0
618.7481862845075,550.4524025287549,1.0,663.0,603.0
586.6006874682556,595.9524025287549,1.0,663.0,603.0
573.1006874682555,655.047597471245,1.0,663.0,603.0
615.2481862845075,680.547597471245,1.0,663.0,603.0
511.0,575.5,2.0,521.0,505.0
571.2518137154925,580.547597471245,2.0,521.0,505.0
618.8993125317444,545.047597471245,2.0,521.0,505.0
589.8993125317445,482.45240252875493,2.0,521.0,505.0
586.7518137154925,443.45240252875493,2.0,521.0,505.0
531.0,405.0,2.0,521.0,505.0
472.24818628450754,436.45240252875493,2.0,521.0,505.0
429.60068746825556,493.45240252875493,2.0,521.0,505.0
449.60068746825556,553.047597471245,2.0,521.0,505.0
458.7481862845075,579.547597471245,2.0,521.0,505.0
380.5,143.0,3.0,394.0,38.0
452.75181371549246,131.54759747124507,3.0,394.0,38.0
479.39931253174444,66.54759747124507,3.0,394.0,38.0
462.39931253174444,6.4524025287549485,3.0,394.0,38.0
441.2518137154925,0.0,3.0,394.0,38.0
388.5,0.0,3.0,394.0,38.0
358.24818628450754,0.0,3.0,394.0,38.0
313.60068746825556,0.0,3.0,394.0,38.0
320.10068746825556,70.54759747124504,3.0,394.0,38.0
348.7481862845075,99.54759747124506,3.0,394.0,38.0
223.5,303.0,4.0,209.0,199.0
248.25181371549246,277.04759747124507,4.0,209.0,199.0
285.39931253174444,214.54759747124507,4.0,209.0,199.0
288.89931253174444,192.45240252875496,4.0,209.0,199.0
261.7518137154925,121.45240252875494,4.0,209.0,199.0
226.5,92.5,4.0,209.0,199.0
168.24818628450754,110.95240252875493,4.0,209.0,199.0
106.10068746825557,153.45240252875493,4.0,209.0,199.0
110.10068746825556,216.04759747124504,4.0,209.0,199.0
150.2481862845075,287.04759747124507,4.0,209.0,199.0
