edge_x,edge_y,number,center_x,center_y
665.5,669.5,0.0,673.0,585.0
709.2518137154925,681.047597471245,0.0,673.0,585.0
751.8993125317444,624.047597471245,0.0,673.0,585.0
781.3993125317445,573.952402528755,0.0,673.0,585.0
744.7518137154925,532.452402528755,0.0,673.0,585.0
660.5,503.5,0.0,673.0,585.0
629.2481862845075,528.9524025287549,0.0,673.0,585.0
574.1006874682556,539.4524025287549,0.0,673.0,585.0
572.6006874682555,611.547597471245,0.0,673.0,585.0
611.2481862845075,682.047597471245,0.0,673.0,585.0
288.0,212.0,1.0,289.0,123.0
334.25181371549246,179.04759747124507,1.0,289.0,123.0
393.39931253174444,143.04759747124507,1.0,289.0,123.0
387.39931253174444,104.95240252875494,1.0,289.0,123.0
341.2518137154925,59.452402528754945,1.0,289.0,123.0
294.0,17.0,1.0,289.0,123.0
228.74818628450754,29.45240252875493,1.0,289.0,123.0
207.60068746825556,109.45240252875493,1.0,289.0,123.0
219.10068746825556,140.04759747124504,1.0,289.0,123.0
222.2481862845075,221.04759747124507,1.0,289.0,123.0
45.5,221.0,2.0,68.0,131.0
113.75181371549247,226.54759747124507,2.0,68.0,131.0
146.89931253174444,156.54759747124507,2.0,68.0,131.0
173.39931253174444,121.95240252875494,2.0,68.0,131.0
105.75181371549249,74.45240252875494,2.0,68.0,131.0
89.00000000000001,34.5,2.0,68.0,131.0
4.748186284507533,55.45240252875493,2.0,68.0,131.0
0.0,87.95240252875493,2.0,68.0,131.0
0.0,152.04759747124504,2.0,68.0,131.0
8.748186284507504,184.54759747124507,2.0,68.0,131.0
190.5,851.5,3.0,177.0,766.0
243.75181371549246,864.047597471245,3.0,177.0,766.0
260.89931253174444,797.547597471245,3.0,177.0,766.0
245.39931253174444,716.952402528755,3.0,177.0,766.0
217.2518137154925,689.452402528755,3.0,177.0,766.0
193.0,656.0,3.0,177.0,766.0
140.24818628450754,667.4524025287549,3.0,177.0,766.0
65.60068746825557,759.4524025287549,3.0,177.0,766.0
98.10068746825556,816.047597471245,3.0,177.0,766.0
100.74818628450751,821.547597471245,3.0,177.0,766.0
292.0,194.0,4.0,303.0,114.0
337.25181371549246,170.54759747124507,4.0,303.0,114.0
386.39931253174444,148.04759747124507,4.0,303.0,114.0
386.39931253174444,106.45240252875494,4.0,303.0,114.0
344.7518137154925,56.452402528754945,4.0,303.0,114.0
292.5,1.0,4.0,303.0,114.0
261.74818628450754,44.95240252875493,4.0,303.0,114.0
230.60068746825556,101.95240252875493,4.0,303.0,114.0
223.10068746825556,145.04759747124504,4.0,303.0,114.0
265.7481862845075,195.54759747124507,4.0,303.0,114.0
